{
  "results": [




    {
      "vote_count": 0,
      "id": 284054,
      "video": false,
      "vote_average": 0,
      "title": "Black Panther",
      "popularity": 47.922196,
      "poster_path": "/kNNtazn7jrfPs4eTlpPMdl8sUm0.jpg",
      "original_language": "en",
      "original_title": "Black Panther",
      "genre_ids": [
        28,
        12,
        18,
        878,
        53
      ],
      "backdrop_path": "/6ELJEzQJ3Y45HczvreC3dg0GV5R.jpg",
      "adult": false,
      "overview": "T'Challa, the new ruler of the advanced kingdom of Wakanda, must defend his land from being torn apart by enemies from outside and inside the country.",
      "release_date": "2018-02-13"
    },
    {
      "vote_count": 3,
      "id": 337167,
      "video": false,
      "vote_average": 0,
      "title": "Fifty Shades Freed",
      "popularity": 40.170393,
      "poster_path": "/iUDFe6B6bFPOAE13uoqH4eEU1cF.jpg",
      "original_language": "en",
      "original_title": "Fifty Shades Freed",
      "genre_ids": [
        18,
        10749
      ],
      "backdrop_path": "/iuyE1qy9HoTsMg0DHB1KJxM94DJ.jpg",
      "adult": false,
      "overview": "The third installment of the Fifty Shades Trilogy.",
      "release_date": "2018-02-07"
    },
    {
      "vote_count": 0,
      "id": 455236,
      "video": false,
      "vote_average": 0,
      "title": "Accident Man",
      "popularity": 35.166184,
      "poster_path": "/jMRETC4nZ4rL0gBgRH7aPmbTGj6.jpg",
      "original_language": "en",
      "original_title": "Accident Man",
      "genre_ids": [
        28,
        80
      ],
      "backdrop_path": "/4QLcxcgpLLeKg6gjKjE7gbkvekK.jpg",
      "adult": false,
      "overview": "Mike Fallon, the Accident Man, is a stone cold killer.  When a loved one is murdered by his own crew, Fallon is forced to avenge the one person who actually meant something to him.",
      "release_date": "2018-02-05"
    },
    {
      "vote_count": 0,
      "id": 453201,
      "video": false,
      "vote_average": 0,
      "title": "The 15:17 to Paris",
      "popularity": 31.990559,
      "poster_path": "/qxJQ0VBCuJkJhJmuWzxI408ngwd.jpg",
      "original_language": "en",
      "original_title": "The 15:17 to Paris",
      "genre_ids": [
        53,
        18
      ],
      "backdrop_path": "/gkkBhctHPGg8hrmtWbO3ySZoj4z.jpg",
      "adult": false,
      "overview": "In August 2015, an ISIS terrorist boarded train #9364 from Brussels to Paris. Armed with an AK-47 and enough ammo to kill more than 500 people, the terrorist might have succeeded except for three American friends who refused to give in to fear. Stone was a martial arts enthusiast and airman first class in the U.S. Air Force, Skarlatos was a member of the Oregon National Guard, and all three pals proved fearless as they charged and ultimately overpowered the gunman after he emerged from a bathroom armed and ready to kill.",
      "release_date": "2018-02-02"
    },
    {
      "vote_count": 1,
      "id": 387592,
      "video": false,
      "vote_average": 0,
      "title": "Early Man",
      "popularity": 27.613548,
      "poster_path": "/ugw07fJIZMVrrIGeN1MO7Xecj5h.jpg",
      "original_language": "en",
      "original_title": "Early Man",
      "genre_ids": [
        10751,
        35,
        16
      ],
      "backdrop_path": "/jyvWcB4PH1BSPo82t4h8sU4wr2a.jpg",
      "adult": false,
      "overview": "Set at the dawn of time, when dinosaurs and woolly mammoths roamed the earth, Early Man tells the story of how one plucky caveman unites his tribe against a mighty enemy and saves the day!",
      "release_date": "2018-01-26"
    },
    {
      "vote_count": 0,
      "id": 381719,
      "video": false,
      "vote_average": 0,
      "title": "Peter Rabbit",
      "popularity": 26.228893,
      "poster_path": "/mHQ694uFOfTKXjhBMB4PMEce8UD.jpg",
      "original_language": "en",
      "original_title": "Peter Rabbit",
      "genre_ids": [
        16
      ],
      "backdrop_path": "/vBIvSqbSNbABqAqP92utXzSXUhE.jpg",
      "adult": false,
      "overview": "Feature adaptation of Beatrix Potter's classic tale of a rebellious rabbit trying to sneak into a farmer's vegetable garden.",
      "release_date": "2018-02-07"
    },
    {
      "vote_count": 2,
      "id": 390059,
      "video": false,
      "vote_average": 0,
      "title": "Permission",
      "popularity": 16.3851,
      "poster_path": "/2ALqBXzVogsrWnUBUD3jtQRS2nl.jpg",
      "original_language": "en",
      "original_title": "Permission",
      "genre_ids": [
        35,
        10749
      ],
      "backdrop_path": "/o6J3oi2fh6LL7uuslTHmQOMaCRV.jpg",
      "adult": false,
      "overview": "A woman on the brink of a marriage proposal is told by a friend that she should date other men before spending the rest of her life with her boyfriend.",
      "release_date": "2018-02-09"
    },
    {
      "vote_count": 60,
      "id": 415401,
      "video": false,
      "vote_average": 6.5,
      "title": "The Party",
      "popularity": 15.177698,
      "poster_path": "/rzpbqnmMBtoNKwqwbp2KMaZmwWw.jpg",
      "original_language": "en",
      "original_title": "The Party",
      "genre_ids": [
        35,
        18
      ],
      "backdrop_path": "/sD8dKJiAXKL61SMOQvwHJEVeynd.jpg",
      "adult": false,
      "overview": "Various individuals think they’re coming together for a party in a private home, but a series of revelations results in a huge crisis that throws their belief systems – and their values – into total disarray.",
      "release_date": "2017-09-13"
    },
    {
      "vote_count": 25,
      "id": 462883,
      "video": false,
      "vote_average": 7.8,
      "title": "Woody Woodpecker",
      "popularity": 13.317963,
      "poster_path": "/4YrNey4hRmdkvCj54vBymL0Ys1G.jpg",
      "original_language": "en",
      "original_title": "Woody Woodpecker",
      "genre_ids": [
        16,
        35,
        10751
      ],
      "backdrop_path": "/psnEXVwe7OEt7xMEy4kyc0PIIWW.jpg",
      "adult": false,
      "overview": "The hyperactive red-headed bird enters a turf war with a big city lawyer wanting to tear down his home in an effort to build a house to flip.",
      "release_date": "2017-10-05"
    },
    {
      "vote_count": 0,
      "id": 498919,
      "video": false,
      "vote_average": 0,
      "title": "La Boda de Valentina",
      "popularity": 12.678311,
      "poster_path": "/sD6o09KA4KyxWvvB8rKn8bQuuD5.jpg",
      "original_language": "es",
      "original_title": "La Boda de Valentina",
      "genre_ids": [
        35
      ],
      "backdrop_path": null,
      "adult": false,
      "overview": "Valentina  seems to have the perfect life in New York, with a perfect job and a perfect boyfriend, Jason Tate—far, far away from her scandalous political family in Mexico. When Jason proposes to her and wants to go to home to meet the family she has been keeping a secret, her two worlds clash. Adding to the hilarious chaos, her family brings her ex, Angel, into the picture and convinces Valentina to go along with a sham marriage to him in an effort to stop further negative press as her father runs for re-election. In the end, Valentina must choose where her heart belongs.",
      "release_date": "2018-02-08"
    },
    {
      "vote_count": 0,
      "id": 474390,
      "video": false,
      "vote_average": 0,
      "title": "Untitled Warner Animation Project 2018",
      "popularity": 9.565676,
      "poster_path": null,
      "original_language": "en",
      "original_title": "Untitled Warner Animation Project 2018",
      "genre_ids": [
        16
      ],
      "backdrop_path": null,
      "adult": false,
      "overview": "An untitled Warner Animation Project.",
      "release_date": "2018-02-09"
    },
    {
      "vote_count": 0,
      "id": 492684,
      "video": false,
      "vote_average": 0,
      "title": "Honor Up",
      "popularity": 9.535446,
      "poster_path": "/55LtjI1Wxng3VCNOnKYnag3AVWW.jpg",
      "original_language": "en",
      "original_title": "Honor Up",
      "genre_ids": [
        28
      ],
      "backdrop_path": null,
      "adult": false,
      "overview": "The film -- executive produced by rapper Kanye West -- follows character OG, played by Damon Dash, in a saga that flips between his dedication to his family and honoring his street code all at the same time.",
      "release_date": "2018-02-16"
    },
    {
      "vote_count": 0,
      "id": 487283,
      "video": false,
      "vote_average": 0,
      "title": "A Wish for Giants",
      "popularity": 9.425637,
      "poster_path": "/pHvnOqNBrPKGzP8orbm9bRpsecK.jpg",
      "original_language": "en",
      "original_title": "A Wish for Giants",
      "genre_ids": [
        12,
        18,
        14,
        878
      ],
      "backdrop_path": null,
      "adult": false,
      "overview": "Sophie, a young volunteer, meets her kindred spirit in Roxie, a girl with a life threatening medical condition and a unique wish to meet Bigfoot.",
      "release_date": "2018-02-17"
    },
    {
      "vote_count": 0,
      "id": 442709,
      "video": false,
      "vote_average": 0,
      "title": "Nostalgia",
      "popularity": 7.929247,
      "poster_path": "/iBTqYE6MN15WtcB0v5u6ho7S9N9.jpg",
      "original_language": "en",
      "original_title": "Nostalgia",
      "genre_ids": [
        18
      ],
      "backdrop_path": "/7hVWCCB5QKVmh6LpYIoLJTvv9jf.jpg",
      "adult": false,
      "overview": "A group of people are connected through a loss.",
      "release_date": "2018-02-16"
    },
    {
      "vote_count": 2,
      "id": 300668,
      "video": false,
      "vote_average": 0,
      "title": "Annihilation",
      "popularity": 6.674544,
      "poster_path": "/j93NTf51vfrSUgkUbqeFKZmcTWy.jpg",
      "original_language": "en",
      "original_title": "Annihilation",
      "genre_ids": [
        9648,
        12,
        878,
        53
      ],
      "backdrop_path": "/6JD9ZfyumlxKPcxNJV9ZDW5iD8H.jpg",
      "adult": false,
      "overview": "A biologist signs up for a dangerous, secret expedition into a mysterious zone where the laws of nature don't apply.",
      "release_date": "2018-02-22"
    },
    {
      "vote_count": 0,
      "id": 499915,
      "video": false,
      "vote_average": 0,
      "title": "Gods of Perdition",
      "popularity": 6.488,
      "poster_path": "/yNEo30D6Vx8sCSjCfwgGcPTjUBU.jpg",
      "original_language": "en",
      "original_title": "Gods of Perdition",
      "genre_ids": [
        27,
        53
      ],
      "backdrop_path": "/cdPQcEZSg21YTdJcQWonr5oajMJ.jpg",
      "adult": false,
      "overview": "Luly's fears of her dad being alienated from her after her parents' divorce results in a demonic creature entering her life and capitalizing on her fears by using her as a portal for murder.",
      "release_date": "2018-02-10"
    },
    {
      "vote_count": 0,
      "id": 425001,
      "video": false,
      "vote_average": 0,
      "title": "The War with Grandpa",
      "popularity": 5.276968,
      "poster_path": "/dZPJF6I3jIFILs604APp9iIvIRS.jpg",
      "original_language": "en",
      "original_title": "The War with Grandpa",
      "genre_ids": [
        35
      ],
      "backdrop_path": null,
      "adult": false,
      "overview": "Upset that he has to share the room he loves with his grandfather, Peter decides to declare war in an attempt to get it back.",
      "release_date": "2018-02-23"
    },
    {
      "vote_count": 0,
      "id": 445571,
      "video": false,
      "vote_average": 0,
      "title": "Game Night",
      "popularity": 5.209881,
      "poster_path": "/1wS89vns6cseCn4UHSqj97xKEKW.jpg",
      "original_language": "en",
      "original_title": "Game Night",
      "genre_ids": [
        27,
        35,
        80,
        28
      ],
      "backdrop_path": "/jknYekTVH1n7doNVj5wiCMKhx7u.jpg",
      "adult": false,
      "overview": "A group of friends who meet regularly for game nights find themselves trying to solve a murder mystery.",
      "release_date": "2018-02-22"
    },
    {
      "vote_count": 0,
      "id": 474392,
      "video": false,
      "vote_average": 0,
      "title": "Samson",
      "popularity": 4.652471,
      "poster_path": "/2Jsyc0BSZqpK261ob7VhXQTMH5v.jpg",
      "original_language": "en",
      "original_title": "Samson",
      "genre_ids": [
        28,
        18
      ],
      "backdrop_path": "/6rlYloGJhvPTycerSbq7HWGAo7A.jpg",
      "adult": false,
      "overview": "After losing the love of his life to a cruel Philistine prince, a young Hebrew with Supernatural strength defends his people, sacrificing everything to avenge his love, his people, and his God.",
      "release_date": "2018-02-16"
    },
    {
      "vote_count": 1,
      "id": 465136,
      "video": false,
      "vote_average": 0,
      "title": "Every Day",
      "popularity": 4.542964,
      "poster_path": "/9T8ZNlCo0OKugGRcXKEos3ecxVF.jpg",
      "original_language": "en",
      "original_title": "Every Day",
      "genre_ids": [
        10751,
        10749,
        18,
        14
      ],
      "backdrop_path": "/7odR5zLsrrls6KIYT9AlES8D4kh.jpg",
      "adult": false,
      "overview": "There’s never any warning about where it will be or who it will be. A has made peace with that, even established guidelines by which to live: Never get too attached. Avoid being noticed. Do not interfere. It’s all fine until the morning that A wakes up in the body of Justin and meets Justin’s girlfriend, Rhiannon. From that moment, the rules by which A has been living no longer apply. Because finally A has found someone he wants to be with—day in, day out, day after day.",
      "release_date": "2018-02-22"
    }
  ],
  "page": 1,
  "total_results": 27,
  "dates": {
    "maximum": "2018-02-27",
    "minimum": "2018-02-03"
  },
  "total_pages": 2
}